Bayesian nonparametric models for zero-inflated count-compositional data using ensembles of regression trees
…
]

- Pollen data: has motivated several researchers in Ireland <a name=cite-Haslett2006></a><a name=cite-SalterTownshend2012></a><a name=cite-Parnell2015></a><a name=cite-Sweeney2018></a>([Haslett et al., 2006](#bib-Haslett2006); [Salter-Townshend et al., 2012](#bib-SalterTownshend2012); [Parnell et al., 2015](#bib-Parnell2015); [Sweeney et al., 2018](#bib-Sweeney2018)).

- Microbiome data: has motivated the development of several models <a name=cite-Chen2013></a><a name=cite-Wadsworth2017></a><a name=cite-Tang2019></a><a name=cite-Koslovsky2023></a>([Chen et al., 2013](#bib-Chen2013); [Wadsworth et al., 2017](#bib-Wadsworth2017); [Tang et al., 2019](#bib-Tang2019); [Koslovsky, 2023](#bib-Koslovsky2023)).

---
## Pollen data: Glimpse

```
## # A tibble: 7,832 × 31
##     gdd5  mtco aet.pet Pinus.D Betula Gramineae Picea Quercus.D Alnus Cyperaceae
##    <int> <dbl>   <dbl>   <int>  <int>     <int> <int>     <int> <int>      <int>
##  1  1874  -7.9   0.893     721    158         0     7        22    50          0
##  2  1623  -5.5   0.941     537     28         0   302        19    38          0
##  3  1475  -4.7   0.931     136    183         0   110         0   276          0
##  4  1360  -8.8   0.949     364    354         0   141         0   111          0
##  5  1295  -6.9   0.993     708     50         0   151         0    91          0
##  6  1539  -7.8   0.963     673    194         0    82         0    51          0
##  7  1526  -6.6   0.949     281    280         0    93        47   187          0
##  8  1553  -8.1   0.962     666    115         0   146         0    73          0
##  9  1459 -10.9   0.95      420    267         0   143         0    45          0
## 10  1283  -8.3   0.961     779     90         0   121         0    10          0
## # ℹ 7,822 more rows
## # ℹ 21 more variables: Chenopodiaceae <int>, Artemisia <int>, Quercus.E <int>,
## #   Salix <int>, Juniperus <int>, Ericales <int>, Fagus <int>, Abies <int>,
## #   Olea <int>, Ulmus <int>, Corylus <int>, Ostrya <int>, Pinus.H <int>,
## #   Cedrus <int>, Carpinus <int>, Pistacia <int>, Castanea <int>, Larix <int>,
## #   Tilia <int>, Ephedra <int>, Phillyrea <int>
```
…
